Supervised and Unsupervised Learning
…
We thus cannot determine the relative importance of predictors

The "model" == the existing observations: instance-based learning

Fitting a K-NN model

First we need to determine a training set

set.seed(123)
sim.data %<>% 
  mutate(set = sample(c("Train", "Test"), size=100, prob = c(.25, .75), replace=TRUE))
sim.data

## # A tibble: 100 x 4
##       x1    x2 class set  
##    <dbl> <dbl> <chr> <chr>
##  1  5.90  6.13 C     Test 
##  2  5.02  6.97 A     Train
##  3  7.07  8.19 C     Test 
##  4  5.12  2.40 B     Train
##  5  4.22  2.89 B     Train
##  6  6.28  4.16 B     Test 
##  7  6.92  6.71 C     Test 
##  8  3.43  8.08 A     Train
##  9  4.97  1.73 B     Test 
## 10  7.06  6.22 C     Test 
## # ... with 90 more rows
…
