Supervised and Unsupervised Learning
…
The “model” == the existing observations: instance-based learning

Fitting a K-NN model

First we need to determine a training set

set.seed(123)
sim.data <-
  sim.data %>% 
  mutate(set = sample(c("Train", "Test"), size = 100, 
                      prob = c(.25, .75), replace = TRUE))
sim.data

## # A tibble: 100 x 4
##       x1    x2 class set  
##    <dbl> <dbl> <chr> <chr>
##  1  5.90  6.13 C     Test 
##  2  8.02  6.97 C     Train
##  3  7.07  8.19 C     Test 
##  4  3.62  5.40 A     Train
##  5  2.72  5.89 A     Train
##  6  7.78  7.16 C     Test 
##  7  5.42  3.71 B     Test 
##  8  6.43  8.08 C     Train
##  9  4.97  1.73 B     Test 
## 10  4.06  6.22 A     Test 
## # ... with 90 more rows
…
