Practical D
…
age_subset <- dplyr::filter(boys, 
                            (age < 15), 
                            (reg != "north")
                            )
mean(age_subset$age, na.rm=TRUE)

[1] 6.044461

Select: Select the variables bmi and wgt of the tibble you just created

Code

dplyr::select(age_subset, bmi, wgt)

# A tibble: 499 × 2
     bmi   wgt
   <dbl> <dbl>
 1  14.5  3.65
 2  11.8  3.37
 3  12.6  3.14
 4  14.4  4.27
 5  15.2  5.03
 6  15.1  4.66
 7  13.8  3.81
 8  13.8  3.89
 9  12.8  3.88
10  14.1  4.2 
# ℹ 489 more rows

Mutate: Create two new variables, one call hgt_square (hgt^2), and another called bmi_2 (10000 \(\times\) wgt/hgt_square).

Code

# The arguments are evaluated sequentially in tidyverse, by the time we get to bmi_2 the computer has already created hgt_square
dplyr::mutate(boys, 
              hgt_square = hgt^2,
              bmi_2 = 10000 * wgt / hgt_square)

# A tibble: 748 × 11
     age   hgt   wgt   bmi    hc gen   phb      tv reg   hgt_square bmi_2
   <dbl> <dbl> <dbl> <dbl> <dbl> <chr> <chr> <dbl> <chr>      <dbl> <dbl>
 1 0.035  50.1  3.65  14.5  33.7 <NA>  <NA>     NA south      2510.  14.5
 2 0.038  53.5  3.37  11.8  35   <NA>  <NA>     NA south      2862.  11.8
 3 0.057  50    3.14  12.6  35.2 <NA>  <NA>     NA south      2500   12.6
 4 0.06   54.5  4.27  14.4  36.7 <NA>  <NA>     NA south      2970.  14.4
 5 0.062  57.5  5.03  15.2  37.3 <NA>  <NA>     NA south      3306.  15.2
 6 0.068  55.5  4.66  15.1  37   <NA>  <NA>     NA south      3080.  15.1
 7 0.068  52.5  3.81  13.8  34.9 <NA>  <NA>     NA south      2756.  13.8
 8 0.071  53    3.89  13.8  35.8 <NA>  <NA>     NA west       2809   13.8
 9 0.071  55.1  3.88  12.8  36.8 <NA>  <NA>     NA west       3036.  12.8
10 0.073  54.5  4.2   14.1  38   <NA>  <NA>     NA east       2970.  14.1
# ℹ 738 more rows
…
arrange: Sort the dataset by bmi, what can you say about the boys with low bmi?

Code

#They are small babies
dplyr::arrange(boys, bmi)

# A tibble: 748 × 9
      age   hgt   wgt   bmi    hc gen   phb      tv reg  
    <dbl> <dbl> <dbl> <dbl> <dbl> <chr> <chr> <dbl> <chr>
 1  0.038  53.5  3.37  11.8  35   <NA>  <NA>     NA south
 2  0.164  55    3.73  12.3  37.8 <NA>  <NA>     NA west 
 3  0.057  50    3.14  12.6  35.2 <NA>  <NA>     NA south
 4  0.071  55.1  3.88  12.8  36.8 <NA>  <NA>     NA west 
 5  0.191  56.9  4.14  12.8  35.7 <NA>  <NA>     NA south
 6  0.09   55.7  4.07  13.1  36.6 <NA>  <NA>     NA east 
 7  0.202  60    4.79  13.3  38.2 <NA>  <NA>     NA west 
 8  3.96  105.  14.6   13.3  47.6 <NA>  <NA>     NA south
 9  0.197  58    4.55  13.5  38.3 <NA>  <NA>     NA south
10 11.1   135.  25     13.7  48.2 G1    P2        2 west 
# ℹ 738 more rows
…
